<svg width="32" height="32" viewBox="0 0 32 32" fill="none" xmlns="http://www.w3.org/2000/svg">
<g clip-path="url(#clip0_904_59438)">
<path d="M7.43144 12.3351L2.53588 17.2308C2.53575 17.2311 2.5355 17.2312 2.53531 17.2312C0.900437 18.8662 0 21.0399 0 23.3518C0 25.6637 0.900437 27.8374 2.53525 29.4723C4.22275 31.1596 6.43913 32.0033 8.65563 32.0033C10.872 32.0033 13.0886 31.1596 14.7758 29.4722C14.7758 29.4721 14.7758 29.4721 14.7759 29.4721L14.7761 29.4719L19.6722 24.5757C20.3482 23.8996 20.3482 22.8036 19.6722 22.1276C18.9963 21.4515 17.9001 21.4515 17.2241 22.1276L12.3279 27.0238C12.3279 27.0239 12.3279 27.0239 12.3278 27.0239L12.3277 27.0241C10.3029 29.0489 7.00831 29.0489 4.98331 27.0241C4.00256 26.0432 3.46225 24.739 3.46225 23.3518C3.46225 21.9645 4.0025 20.6605 4.98344 19.6797C4.98369 19.6794 4.98381 19.6792 4.98387 19.679L9.87956 14.7833C10.5556 14.1072 10.5556 13.0112 9.87956 12.3352C9.2035 11.6591 8.10738 11.6591 7.43144 12.3351Z" fill="#2E91F7"/>
<path d="M27.016 12.3321L22.1204 17.2278C21.4443 17.9039 21.4443 18.9999 22.1204 19.676C22.4584 20.014 22.9014 20.1831 23.3444 20.1831C23.7874 20.1831 24.2305 20.014 24.5684 19.676L29.4639 14.7803C29.464 14.78 29.4643 14.7799 29.4645 14.7798C31.0994 13.145 31.9998 10.9713 31.9998 8.65927C31.9998 6.34727 31.0994 4.17364 29.4645 2.53877C26.0895 -0.835734 20.5985 -0.835984 17.224 2.53889C17.224 2.53902 17.224 2.53902 17.2239 2.53902C17.2239 2.53902 17.2237 2.53902 17.2237 2.53914L12.3274 7.43539C11.6513 8.11133 11.6513 9.20733 12.3274 9.88352C12.6654 10.2216 13.1084 10.3905 13.5514 10.3905C13.9943 10.3905 14.4375 10.2215 14.7754 9.88352L19.6717 4.98727C19.6717 4.98714 19.6717 4.98714 19.6719 4.98714C19.6719 4.98714 19.672 4.98714 19.672 4.98702C21.6968 2.9622 24.9914 2.9622 27.0164 4.98702C27.9972 5.96795 28.5375 7.2722 28.5375 8.65927C28.5375 10.0466 27.9973 11.3506 27.0164 12.3314C27.0163 12.3316 27.0162 12.3319 27.016 12.3321Z" fill="#2E91F7"/>
<path d="M9.88009 22.1226C10.2181 22.4606 10.6612 22.6297 11.1041 22.6297C11.5472 22.6297 11.9902 22.4607 12.3281 22.1226L22.1207 12.3302C22.7967 11.6542 22.7967 10.5581 22.1207 9.88205C21.4447 9.20598 20.3486 9.20598 19.6725 9.88205L9.88009 19.6746C9.20403 20.3504 9.20403 21.4465 9.88009 22.1226Z" fill="#2E91F7"/>
<path d="M8.65562 31.9922C10.872 31.9922 13.0886 31.1484 14.7758 29.461C14.7758 29.4609 14.7758 29.4609 14.7759 29.4609L14.7761 29.4608L19.6722 24.5645C20.3482 23.8885 20.3482 22.7925 19.6722 22.1164C18.9963 21.4404 17.9001 21.4404 17.2241 22.1164L12.3279 27.0127C12.3279 27.0128 12.3279 27.0128 12.3278 27.0128L12.3277 27.0129C10.3029 29.0377 7.00831 29.0377 4.98331 27.0129C4.96325 26.9929 4.94444 26.9717 4.92469 26.9513L2.47656 29.3994C2.4965 29.4197 2.51513 29.441 2.53531 29.461C4.22269 31.1485 6.43906 31.9922 8.65562 31.9922Z" fill="#2E91F7"/>
<path d="M28.5376 8.65544C28.5376 10.0428 27.9974 11.3468 27.0165 12.3276C27.0162 12.3278 27.0161 12.328 27.016 12.3283L22.1203 17.2239C21.4443 17.9 21.4443 18.996 22.1203 19.6721C22.4583 20.0101 22.9014 20.1792 23.3443 20.1792C23.7874 20.1792 24.2305 20.0101 24.5685 19.6721L29.464 14.7764C29.4641 14.7761 29.4644 14.776 29.4646 14.7759C31.0994 13.1411 31.9998 10.9674 31.9998 8.65544C31.9998 6.34344 31.0994 4.16981 29.4646 2.53494C29.4445 2.51488 29.4234 2.49638 29.4031 2.47656L26.955 4.92469C26.9754 4.94444 26.9964 4.96313 27.0165 4.98319C27.9974 5.96419 28.5376 7.26825 28.5376 8.65544Z" fill="#2E91F7"/>
</g>
<defs>
<clipPath id="clip0_904_59438">
<rect width="32" height="32" fill="white"/>
</clipPath>
</defs>
</svg>
