<svg width="32" height="32" viewBox="0 0 32 32" fill="none" xmlns="http://www.w3.org/2000/svg">
<path d="M29.7538 13.9507C29.6313 10.4602 28.2178 7.19619 25.7358 4.71419C23.1343 2.11219 19.6768 0.679688 16.0008 0.679688C8.57627 0.679688 2.50977 6.58919 2.24827 13.9507C1.11527 14.4542 0.322266 15.5882 0.322266 16.9062V20.5372C0.322266 22.3202 1.77277 23.7712 3.55627 23.7712C4.71027 23.7712 5.64877 22.8327 5.64877 21.6787V15.7642C5.64877 14.6807 4.81777 13.7972 3.76127 13.6922C4.15127 7.27869 9.49027 2.17969 16.0008 2.17969C19.2768 2.17969 22.3573 3.45669 24.6758 5.77519C26.8048 7.90419 28.0508 10.6792 28.2383 13.6927C27.1828 13.7987 26.3533 14.6817 26.3533 15.7642V21.6782C26.3533 22.7707 27.1973 23.6597 28.2663 23.7522V25.2467C28.2663 26.9297 26.8968 28.2987 25.2138 28.2987H22.9533C22.8423 27.9817 22.6683 27.6887 22.4243 27.4457C21.9968 27.0162 21.4268 26.7797 20.8198 26.7797H18.4898C18.1553 26.7797 17.8343 26.8507 17.5403 26.9877C16.7383 27.3562 16.2203 28.1652 16.2203 29.0487C16.2203 29.6557 16.4568 30.2257 16.8853 30.6522C17.3138 31.0817 17.8838 31.3182 18.4898 31.3182H20.8198C21.7858 31.3182 22.6373 30.6937 22.9548 29.7987H25.2138C27.7243 29.7987 29.7663 27.7567 29.7663 25.2467V23.4852C30.8923 22.9787 31.6793 21.8487 31.6793 20.5362V16.9052C31.6793 15.5882 30.8863 14.4542 29.7538 13.9507ZM4.14827 15.7642V21.6782C4.14827 22.0047 3.88277 22.2707 3.55577 22.2707C2.59977 22.2707 1.82177 21.4927 1.82177 20.5367V16.9057C1.82177 15.9492 2.59977 15.1717 3.55577 15.1717C3.88277 15.1717 4.14827 15.4377 4.14827 15.7642ZM21.5723 29.2097C21.4978 29.5627 21.1808 29.8192 20.8193 29.8192H18.4893C18.2843 29.8192 18.0918 29.7392 17.9448 29.5922C17.7998 29.4477 17.7198 29.2547 17.7198 29.0497C17.7198 28.7502 17.8953 28.4767 18.1703 28.3502C18.2683 28.3042 18.3758 28.2807 18.4893 28.2807H20.8193C21.0243 28.2807 21.2168 28.3602 21.3633 28.5072C21.5083 28.6517 21.5883 28.8447 21.5883 29.0497C21.5888 29.1047 21.5828 29.1597 21.5723 29.2097ZM30.1793 20.5367C30.1793 21.4927 29.4013 22.2707 28.4453 22.2707C28.1188 22.2707 27.8528 22.0052 27.8528 21.6782V15.7642C27.8528 15.4377 28.1183 15.1717 28.4453 15.1717C29.4013 15.1717 30.1793 15.9497 30.1793 16.9057V20.5367Z" fill="white"/>
<path d="M20.8578 20.7924C22.6103 20.7924 24.0358 19.3664 24.0358 17.6144V11.1389C24.0358 10.2919 23.7048 9.49394 23.1038 8.89294C22.5028 8.29194 21.7053 7.96094 20.8578 7.96094H11.1448C9.3923 7.96094 7.9668 9.38644 7.9668 11.1389V17.6144C7.9668 19.3669 9.3923 20.7924 11.1448 20.7924H11.2043V22.4704C11.2043 23.1104 11.5858 23.6784 12.1758 23.9179C12.3663 23.9944 12.5643 24.0324 12.7603 24.0324C13.1688 24.0324 13.5668 23.8704 13.8583 23.5689L16.6498 20.7924H20.8578ZM15.8123 19.5104L12.7913 22.5149C12.7778 22.5289 12.7678 22.5394 12.7393 22.5269C12.7048 22.5129 12.7048 22.4904 12.7048 22.4704V20.0424C12.7048 19.6284 12.3693 19.2924 11.9548 19.2924H11.1453C10.2198 19.2924 9.4673 18.5394 9.4673 17.6144V11.1389C9.4673 10.2134 10.2198 9.46094 11.1453 9.46094H20.8583C21.3053 9.46094 21.7258 9.63594 22.0438 9.95344C22.3618 10.2714 22.5363 10.6924 22.5363 11.1389V17.6144C22.5363 18.5399 21.7833 19.2924 20.8583 19.2924H16.3413C16.1428 19.2924 15.9528 19.3709 15.8123 19.5104Z" fill="white"/>
<path d="M12.3565 13.3906C11.7465 13.3906 11.25 13.8876 11.25 14.4971C11.25 15.1066 11.747 15.6036 12.3565 15.6036C12.967 15.6036 13.464 15.1066 13.464 14.4971C13.464 13.8876 12.9675 13.3906 12.3565 13.3906Z" fill="white"/>
<path d="M16.001 13.3906C15.391 13.3906 14.8945 13.8876 14.8945 14.4971C14.8945 15.1066 15.3915 15.6036 16.001 15.6036C16.612 15.6036 17.1085 15.1066 17.1085 14.4971C17.1085 13.8876 16.612 13.3906 16.001 13.3906Z" fill="white"/>
<path d="M19.6436 13.3906C19.0336 13.3906 18.5371 13.8876 18.5371 14.4971C18.5371 15.1066 19.0341 15.6036 19.6436 15.6036C20.2541 15.6036 20.7511 15.1066 20.7511 14.4971C20.7511 13.8876 20.2541 13.3906 19.6436 13.3906Z" fill="white"/>
</svg>
