<svg width="107" height="36" viewBox="0 0 107 36" fill="none" xmlns="http://www.w3.org/2000/svg">
<path d="M54.52 17.82C55.0267 17.9 55.4867 18.1067 55.9 18.44C56.3267 18.7733 56.66 19.1867 56.9 19.68C57.1533 20.1733 57.28 20.7 57.28 21.26C57.28 21.9667 57.1 22.6067 56.74 23.18C56.38 23.74 55.8533 24.1867 55.16 24.52C54.48 24.84 53.6733 25 52.74 25H47.54V11.06H52.54C53.4867 11.06 54.2933 11.22 54.96 11.54C55.6267 11.8467 56.1267 12.2667 56.46 12.8C56.7933 13.3333 56.96 13.9333 56.96 14.6C56.96 15.4267 56.7333 16.1133 56.28 16.66C55.84 17.1933 55.2533 17.58 54.52 17.82ZM49.36 17.08H52.42C53.2733 17.08 53.9333 16.88 54.4 16.48C54.8667 16.08 55.1 15.5267 55.1 14.82C55.1 14.1133 54.8667 13.56 54.4 13.16C53.9333 12.76 53.26 12.56 52.38 12.56H49.36V17.08ZM52.58 23.5C53.4867 23.5 54.1933 23.2867 54.7 22.86C55.2067 22.4333 55.46 21.84 55.46 21.08C55.46 20.3067 55.1933 19.7 54.66 19.26C54.1267 18.8067 53.4133 18.58 52.52 18.58H49.36V23.5H52.58ZM72.6977 25L66.9577 18.64V25H65.1377V11.06H66.9577V17.52L72.7177 11.06H75.0177L68.6977 18.04L75.0777 25H72.6977ZM78.0503 12.26C77.7036 12.26 77.4103 12.14 77.1703 11.9C76.9303 11.66 76.8103 11.3667 76.8103 11.02C76.8103 10.6733 76.9303 10.38 77.1703 10.14C77.4103 9.9 77.7036 9.78 78.0503 9.78C78.3836 9.78 78.6636 9.9 78.8903 10.14C79.1303 10.38 79.2503 10.6733 79.2503 11.02C79.2503 11.3667 79.1303 11.66 78.8903 11.9C78.6636 12.14 78.3836 12.26 78.0503 12.26ZM78.9303 14.04V25H77.1103V14.04H78.9303ZM87.3722 13.84C88.7055 13.84 89.7855 14.2467 90.6122 15.06C91.4389 15.86 91.8522 17.02 91.8522 18.54V25H90.0522V18.8C90.0522 17.7067 89.7789 16.8733 89.2322 16.3C88.6855 15.7133 87.9389 15.42 86.9922 15.42C86.0322 15.42 85.2655 15.72 84.6922 16.32C84.1322 16.92 83.8522 17.7933 83.8522 18.94V25H82.0322V14.04H83.8522V15.6C84.2122 15.04 84.6989 14.6067 85.3122 14.3C85.9389 13.9933 86.6255 13.84 87.3722 13.84ZM94.1452 19.48C94.1452 18.36 94.3718 17.38 94.8252 16.54C95.2785 15.6867 95.8985 15.0267 96.6852 14.56C97.4852 14.0933 98.3785 13.86 99.3652 13.86C100.218 13.86 101.012 14.06 101.745 14.46C102.478 14.8467 103.038 15.36 103.425 16V10.2H105.265V25H103.425V22.94C103.065 23.5933 102.532 24.1333 101.825 24.56C101.118 24.9733 100.292 25.18 99.3452 25.18C98.3718 25.18 97.4852 24.94 96.6852 24.46C95.8985 23.98 95.2785 23.3067 94.8252 22.44C94.3718 21.5733 94.1452 20.5867 94.1452 19.48ZM103.425 19.5C103.425 18.6733 103.258 17.9533 102.925 17.34C102.592 16.7267 102.138 16.26 101.565 15.94C101.005 15.6067 100.385 15.44 99.7052 15.44C99.0252 15.44 98.4052 15.6 97.8452 15.92C97.2852 16.24 96.8385 16.7067 96.5052 17.32C96.1718 17.9333 96.0052 18.6533 96.0052 19.48C96.0052 20.32 96.1718 21.0533 96.5052 21.68C96.8385 22.2933 97.2852 22.7667 97.8452 23.1C98.4052 23.42 99.0252 23.58 99.7052 23.58C100.385 23.58 101.005 23.42 101.565 23.1C102.138 22.7667 102.592 22.2933 102.925 21.68C103.258 21.0533 103.425 20.3267 103.425 19.5Z" fill="#2E91F7"/>
<path d="M46 27H106.805V28H46V27Z" fill="#2E91F7"/>
<circle cx="18" cy="18" r="18" fill="#2E91F7"/>
<path d="M17 10V14C17 14.7956 16.6839 15.5587 16.1213 16.1213C15.5587 16.6839 14.7956 17 14 17H10C9.20435 17 8.44129 16.6839 7.87868 16.1213C7.31607 15.5587 7 14.7956 7 14V10C7 9.20435 7.31607 8.44129 7.87868 7.87868C8.44129 7.31607 9.20435 7 10 7H14C14.7956 7 15.5587 7.31607 16.1213 7.87868C16.6839 8.44129 17 9.20435 17 10ZM26 7H22C21.2044 7 20.4413 7.31607 19.8787 7.87868C19.3161 8.44129 19 9.20435 19 10V14C19 14.7956 19.3161 15.5587 19.8787 16.1213C20.4413 16.6839 21.2044 17 22 17H26C26.7956 17 27.5587 16.6839 28.1213 16.1213C28.6839 15.5587 29 14.7956 29 14V10C29 9.20435 28.6839 8.44129 28.1213 7.87868C27.5587 7.31607 26.7956 7 26 7ZM14 19H10C9.20435 19 8.44129 19.3161 7.87868 19.8787C7.31607 20.4413 7 21.2044 7 22V26C7 26.7956 7.31607 27.5587 7.87868 28.1213C8.44129 28.6839 9.20435 29 10 29H14C14.7956 29 15.5587 28.6839 16.1213 28.1213C16.6839 27.5587 17 26.7956 17 26V22C17 21.2044 16.6839 20.4413 16.1213 19.8787C15.5587 19.3161 14.7956 19 14 19ZM26 19H22C21.2044 19 20.4413 19.3161 19.8787 19.8787C19.3161 20.4413 19 21.2044 19 22V26C19 26.7956 19.3161 27.5587 19.8787 28.1213C20.4413 28.6839 21.2044 29 22 29H26C26.7956 29 27.5587 28.6839 28.1213 28.1213C28.6839 27.5587 29 26.7956 29 26V22C29 21.2044 28.6839 20.4413 28.1213 19.8787C27.5587 19.3161 26.7956 19 26 19Z" fill="white"/>
</svg>
