<svg width="252" height="40" viewBox="0 0 252 40" fill="none" xmlns="http://www.w3.org/2000/svg">
<path d="M13.5579 21.0866C11.6995 21.0866 9.85746 21.0866 8.01538 21.0866C7.92705 21.0866 7.83913 21.1182 7.7508 21.1424C6.02871 21.5511 4.95538 23.1141 5.1558 24.9178C5.33996 26.5607 6.8058 27.8353 8.51996 27.8353C10.7066 27.8353 12.885 27.8432 15.0716 27.8274C15.3441 27.8274 15.5204 27.8995 15.6966 28.1157C16.962 29.6307 18.4841 30.8328 20.2541 31.7149C20.3983 31.787 20.5425 31.867 20.6708 32.0032C20.5504 32.0032 20.4225 32.0032 20.302 32.0032C16.2975 32.0032 12.2925 32.0032 8.29538 32.0032C4.73121 32.0032 1.43121 29.0295 1.02246 25.5028C0.734131 23.0341 1.43913 20.9099 3.16121 19.1228C3.1933 19.0824 3.22538 19.0424 3.28121 18.9782C3.16121 18.842 3.03288 18.7136 2.9208 18.5774C0.966631 16.3011 0.397881 13.7203 1.43121 10.907C2.46455 8.10156 4.55496 6.4824 7.51038 6.00948C7.82288 5.96156 8.13538 5.94531 8.44788 5.94531C12.6687 5.94531 16.8979 5.94531 21.1191 5.94531C21.2475 5.94531 21.3754 5.94531 21.5037 5.94531C21.5116 5.96156 21.5116 5.98531 21.5195 6.00156C21.4316 6.04156 21.3433 6.08156 21.2554 6.11365C19.197 6.9474 17.4266 8.19781 15.9529 9.85698C15.7845 10.0491 15.6083 10.1295 15.352 10.1295C13.0533 10.1216 10.7545 10.1216 8.44788 10.1216C6.60538 10.1216 5.12371 11.6203 5.1158 13.4799C5.10746 15.3553 6.59746 16.8624 8.46371 16.8703C10.0337 16.8703 11.6116 16.8703 13.1816 16.8945C13.51 16.9024 13.6379 16.8141 13.7183 16.4774C15.0079 11.1795 18.2916 7.78906 23.5704 6.46656C29.3854 5.01573 35.6091 8.06156 38.18 13.472C38.2283 13.5761 38.2604 13.6803 38.3241 13.8403C37.9558 13.8403 37.6354 13.8403 37.315 13.8403C36.2095 13.8403 35.1045 13.8324 33.9991 13.8486C33.6787 13.8566 33.4862 13.7524 33.2783 13.512C31.0675 10.9628 28.272 9.8649 24.9479 10.442C21.5116 11.0432 19.2287 13.1111 18.0354 16.3816C17.9795 16.5257 17.9554 16.6778 17.8991 16.8782C25.1 16.8782 32.2529 16.8782 39.3737 16.8782C39.4137 16.9424 39.4458 16.9586 39.4458 16.9824C39.5979 19.8841 39.4137 22.7374 37.9079 25.3266C35.2004 29.9753 31.1395 32.3241 25.765 32.1236C19.7495 31.8991 14.7354 27.4024 13.6462 21.4711C13.622 21.3428 13.59 21.2228 13.5579 21.0866ZM17.8512 21.0866C18.3879 24.092 21.3837 27.9636 26.4295 27.9874C31.4116 28.0116 34.5116 24.2045 35.0641 21.0866C29.3375 21.0866 23.6104 21.0866 17.8512 21.0866Z" fill="white"/>
<path d="M5.34245 19.3451C5.34245 19.4014 5.30286 19.4639 5.2287 19.4639H5.12036V19.0876H5.2237C5.2862 19.0876 5.34245 19.1293 5.34245 19.218V19.3451ZM5.33286 18.7526C5.33286 18.8422 5.25786 18.8639 5.21203 18.8639H5.12036V18.5264H5.21536C5.28286 18.5264 5.33286 18.5639 5.33286 18.6505V18.7526ZM5.59661 18.6347C5.59661 18.4276 5.44745 18.2734 5.22995 18.2734H4.8987C4.87578 18.2734 4.86328 18.2889 4.86328 18.3139V19.6751C4.86328 19.7001 4.87453 19.7147 4.8987 19.7147H5.26203C5.44745 19.7147 5.62036 19.5751 5.62036 19.3722V19.243C5.62036 19.0626 5.50161 18.9814 5.44328 18.9659C5.50995 18.9514 5.59661 18.8547 5.59661 18.738V18.6347Z" fill="#2E91F7"/>
<path d="M7.44557 19.7147C7.46432 19.7147 7.47474 19.7022 7.47474 19.6772V19.4993C7.47474 19.4743 7.46432 19.4639 7.44557 19.4639H7.09349V18.3139C7.09349 18.2889 7.08307 18.2734 7.05891 18.2734H6.85057C6.82766 18.2734 6.81641 18.2889 6.81641 18.3139V19.6751C6.81641 19.7001 6.82766 19.7147 6.85182 19.7147H7.44557Z" fill="#2E91F7"/>
<path d="M9.42635 18.6117C9.42635 18.3846 9.2451 18.25 9.03594 18.25C8.8276 18.25 8.64844 18.3854 8.64844 18.6117V19.375C8.64844 19.5958 8.8276 19.7363 9.03594 19.7363C9.2451 19.7363 9.42635 19.6008 9.42635 19.375V18.6117ZM9.03802 18.5C9.1076 18.5 9.14927 18.5604 9.14927 18.6271V19.3667C9.14927 19.4321 9.1076 19.4854 9.03594 19.4854C8.9651 19.4854 8.92552 19.4258 8.92552 19.3604V18.6271C8.92552 18.5604 8.96719 18.5 9.03802 18.5Z" fill="#2E91F7"/>
<path d="M11.1012 18.6896C11.1012 18.7187 11.1054 18.7292 11.1316 18.7292H11.3179C11.3512 18.7292 11.3587 18.7187 11.3587 18.6896V18.6304C11.3587 18.4 11.2046 18.25 10.9887 18.25C10.8429 18.25 10.6191 18.3533 10.6191 18.6242C10.6191 18.8625 10.7171 18.9313 10.9346 19.1083C11.0629 19.2125 11.1171 19.2592 11.1171 19.3604C11.1171 19.4363 11.0637 19.4842 10.9983 19.4842C10.945 19.4842 10.8796 19.4508 10.8796 19.3467V19.3C10.8796 19.2687 10.8733 19.2571 10.8441 19.2571H10.6546C10.6254 19.2571 10.6191 19.2717 10.6191 19.3071V19.3625C10.6191 19.5583 10.745 19.7363 10.9962 19.7363C11.2262 19.7363 11.3804 19.5696 11.3804 19.375C11.3804 19.1113 11.2254 18.9979 11.0304 18.8471C10.9379 18.775 10.8762 18.7304 10.8762 18.6313C10.8762 18.5367 10.9366 18.5 10.9887 18.5C11.0637 18.5 11.1012 18.5596 11.1012 18.6313V18.6896Z" fill="#2E91F7"/>
<path d="M13.0329 18.6896C13.0329 18.7187 13.037 18.7292 13.0633 18.7292H13.2495C13.2829 18.7292 13.2904 18.7187 13.2904 18.6896V18.6304C13.2904 18.4 13.1362 18.25 12.9204 18.25C12.7745 18.25 12.5508 18.3533 12.5508 18.6242C12.5508 18.8625 12.6487 18.9313 12.8662 19.1083C12.9945 19.2125 13.0487 19.2592 13.0487 19.3604C13.0487 19.4363 12.9954 19.4842 12.9299 19.4842C12.8766 19.4842 12.8112 19.4508 12.8112 19.3467V19.3C12.8112 19.2687 12.8049 19.2571 12.7758 19.2571H12.5862C12.557 19.2571 12.5508 19.2717 12.5508 19.3071V19.3625C12.5508 19.5583 12.6766 19.7363 12.9279 19.7363C13.1579 19.7363 13.312 19.5696 13.312 19.375C13.312 19.1113 13.157 18.9979 12.962 18.8471C12.8695 18.775 12.8079 18.7304 12.8079 18.6313C12.8079 18.5367 12.8683 18.5 12.9204 18.5C12.9954 18.5 13.0329 18.5596 13.0329 18.6313V18.6896Z" fill="#2E91F7"/>
<path d="M15.2701 18.6117C15.2701 18.3846 15.0889 18.25 14.8797 18.25C14.6714 18.25 14.4922 18.3854 14.4922 18.6117V19.375C14.4922 19.5958 14.6714 19.7363 14.8797 19.7363C15.0889 19.7363 15.2701 19.6008 15.2701 19.375V18.6117ZM14.8818 18.5C14.9514 18.5 14.993 18.5604 14.993 18.6271V19.3667C14.993 19.4321 14.9514 19.4854 14.8797 19.4854C14.8089 19.4854 14.7693 19.4258 14.7693 19.3604V18.6271C14.7693 18.5604 14.8109 18.5 14.8818 18.5Z" fill="#2E91F7"/>
<path d="M17.4872 19.6725C17.4872 19.6946 17.4988 19.7142 17.5205 19.7142H17.7322C17.7551 19.7142 17.7642 19.6933 17.7642 19.6725V18.6112C17.7642 18.4112 17.583 18.25 17.3747 18.25C17.2809 18.25 17.1926 18.2821 17.1251 18.3362C17.0563 18.2821 16.9676 18.25 16.8751 18.25C16.6667 18.25 16.4863 18.4112 16.4863 18.6112V19.6737C16.4863 19.6954 16.4988 19.7142 16.5134 19.7142H16.7334C16.7584 19.7142 16.7647 19.6967 16.7647 19.6737V18.6271C16.7647 18.5612 16.8051 18.5021 16.8759 18.5021C16.9459 18.5021 16.9863 18.5612 16.9863 18.6271V19.6737C16.9863 19.6954 17.0001 19.7142 17.0147 19.7142H17.2342C17.2592 19.7142 17.2642 19.6967 17.2642 19.6746V18.6229C17.2663 18.5592 17.3072 18.5021 17.3759 18.5021C17.4455 18.5021 17.4872 18.5612 17.4872 18.6271V19.6725Z" fill="#2E91F7"/>
<path d="M21.0654 19.3667C21.0654 19.4321 21.0167 19.4854 20.95 19.4854C20.8883 19.4854 20.8396 19.4354 20.8396 19.3613V18.6208C20.8396 18.5542 20.8821 18.5 20.9488 18.5C21.0196 18.5 21.0604 18.5617 21.0604 18.6242V18.7158C21.0604 18.7438 21.0667 18.7554 21.0904 18.7554H21.2875C21.3113 18.7554 21.3196 18.7429 21.3196 18.7117V18.6167C21.3196 18.4846 21.2438 18.25 20.9508 18.25C20.7417 18.25 20.5625 18.3854 20.5625 18.6117V19.375C20.5625 19.605 20.7446 19.7363 20.95 19.7363C21.1592 19.7363 21.3258 19.6008 21.3258 19.375V18.9737C21.3258 18.9487 21.3133 18.9342 21.2883 18.9342H20.9883C20.9675 18.9342 20.9571 18.9467 20.9571 18.9708V19.1292C20.9571 19.1542 20.9675 19.1646 20.9883 19.1646H21.0654V19.3667Z" fill="#2E91F7"/>
<path d="M22.824 19.4639V19.1105H23.1281C23.1477 19.1105 23.1615 19.1001 23.1615 19.0751V18.8972C23.1615 18.8714 23.1456 18.8609 23.1281 18.8609H22.824V18.5264H23.2052C23.224 18.5264 23.2344 18.5139 23.2344 18.4889V18.3118C23.2344 18.2859 23.224 18.2734 23.2052 18.2734H22.5823C22.5602 18.2734 22.5469 18.2889 22.5469 18.3139V19.6751C22.5469 19.7001 22.5581 19.7147 22.5823 19.7147H23.2102C23.2269 19.7147 23.2406 19.7034 23.2406 19.6784V19.4993C23.2406 19.4751 23.2269 19.4639 23.2102 19.4639H22.824Z" fill="#2E91F7"/>
<path d="M25.1727 19.7142C25.1952 19.7142 25.2057 19.6933 25.2057 19.6725V18.6112C25.2057 18.4112 25.0248 18.25 24.8165 18.25C24.6082 18.25 24.4277 18.4112 24.4277 18.6112V19.6737C24.4277 19.6954 24.4394 19.7142 24.4548 19.7142H24.6748C24.6986 19.7142 24.7061 19.6967 24.7061 19.6737V18.6271C24.7061 18.5612 24.7465 18.5021 24.8173 18.5021C24.8873 18.5021 24.9277 18.5612 24.9277 18.6271V19.6725C24.9277 19.6946 24.9402 19.7142 24.9611 19.7142H25.1727Z" fill="#2E91F7"/>
<path d="M26.7224 19.4639V19.1105H27.0266C27.0461 19.1105 27.0599 19.1001 27.0599 19.0751V18.8972C27.0599 18.8714 27.0441 18.8609 27.0266 18.8609H26.7224V18.5264H27.1036C27.1224 18.5264 27.1328 18.5139 27.1328 18.4889V18.3118C27.1328 18.2859 27.1224 18.2734 27.1036 18.2734H26.4807C26.4586 18.2734 26.4453 18.2889 26.4453 18.3139V19.6751C26.4453 19.7001 26.4566 19.7147 26.4807 19.7147H27.1086C27.1253 19.7147 27.1391 19.7034 27.1391 19.6784V19.4993C27.1391 19.4751 27.1253 19.4639 27.1086 19.4639H26.7224Z" fill="#2E91F7"/>
<path d="M28.8368 18.8222C28.8368 18.893 28.793 18.9397 28.7097 18.9397H28.613V18.5264H28.7172C28.7889 18.5264 28.8368 18.5743 28.8368 18.6493V18.8222ZM29.068 19.7139C29.0959 19.7139 29.1055 19.6889 29.1055 19.6701V19.4826C29.1055 19.2743 29.0597 19.143 28.9659 19.0639C29.0505 19.0076 29.1147 18.9222 29.1147 18.7984V18.6493C29.1147 18.4422 28.9534 18.2734 28.7389 18.2734H28.3714C28.3493 18.2734 28.3359 18.2889 28.3359 18.3139V19.6764C28.3359 19.7001 28.3464 19.7147 28.3701 19.7147H28.5784C28.6014 19.7147 28.613 19.7001 28.613 19.6764V19.1543C28.7555 19.1639 28.8284 19.248 28.8284 19.4493V19.6668C28.8284 19.698 28.8526 19.7139 28.8764 19.7139H29.068Z" fill="#2E91F7"/>
<path d="M30.6143 18.6271C30.6143 18.5612 30.6547 18.5021 30.7255 18.5021C30.7955 18.5021 30.8359 18.5612 30.8359 18.6271V19.1279H30.6143V18.6271ZM31.1139 18.6112C31.1139 18.4112 30.933 18.25 30.7247 18.25C30.5164 18.25 30.3359 18.4112 30.3359 18.6112V19.6737C30.3359 19.6954 30.3476 19.7142 30.363 19.7142H30.583C30.608 19.7142 30.6143 19.6967 30.6143 19.6737V19.3704H30.8359V19.6725C30.8359 19.6946 30.8484 19.7142 30.8693 19.7142H31.0809C31.1047 19.7142 31.1139 19.6933 31.1139 19.6725V18.6112Z" fill="#2E91F7"/>
<path d="M32.9728 18.5264C32.9907 18.5264 33.0032 18.5139 33.0032 18.4889V18.3109C33.0032 18.2859 32.9907 18.2734 32.9728 18.2734H32.3073C32.2894 18.2734 32.2773 18.2868 32.2773 18.3118V18.4889C32.2773 18.5139 32.2894 18.5264 32.3073 18.5264H32.5011V19.6784C32.5011 19.7022 32.5136 19.7147 32.5311 19.7147H32.749C32.7657 19.7147 32.779 19.7022 32.779 19.6784V18.5264H32.9728Z" fill="#2E91F7"/>
<path d="M34.4509 18.3139C34.4509 18.2889 34.4405 18.2734 34.4163 18.2734H34.208C34.1863 18.2734 34.1738 18.2889 34.1738 18.3139V19.6751C34.1738 19.7001 34.1842 19.7147 34.208 19.7147H34.4163C34.4405 19.7147 34.4509 19.7001 34.4509 19.6751V18.3139Z" fill="#2E91F7"/>
<path d="M36.4557 18.6117C36.4557 18.3846 36.2744 18.25 36.0652 18.25C35.8569 18.25 35.6777 18.3854 35.6777 18.6117V19.375C35.6777 19.5958 35.8569 19.7363 36.0652 19.7363C36.2744 19.7363 36.4557 19.6008 36.4557 19.375V18.6117ZM36.0673 18.5C36.1369 18.5 36.1786 18.5604 36.1786 18.6271V19.3667C36.1786 19.4321 36.1369 19.4854 36.0652 19.4854C35.9944 19.4854 35.9548 19.4258 35.9548 19.3604V18.6271C35.9548 18.5604 35.9965 18.5 36.0673 18.5Z" fill="#2E91F7"/>
<path d="M38.4169 19.7142C38.4394 19.7142 38.4498 19.6933 38.4498 19.6725V18.6112C38.4498 18.4112 38.269 18.25 38.0606 18.25C37.8523 18.25 37.6719 18.4112 37.6719 18.6112V19.6737C37.6719 19.6954 37.6835 19.7142 37.699 19.7142H37.919C37.9427 19.7142 37.9502 19.6967 37.9502 19.6737V18.6271C37.9502 18.5612 37.9906 18.5021 38.0615 18.5021C38.1315 18.5021 38.1719 18.5612 38.1719 18.6271V19.6725C38.1719 19.6946 38.1844 19.7142 38.2052 19.7142H38.4169Z" fill="#2E91F7"/>
<mask id="mask0_623_32669" style="mask-type:luminance" maskUnits="userSpaceOnUse" x="36" y="6" width="4" height="4">
<path d="M36 6.14062H39.2042V9.34479H36V6.14062Z" fill="white"/>
</mask>
<g mask="url(#mask0_623_32669)">
<mask id="mask1_623_32669" style="mask-type:luminance" maskUnits="userSpaceOnUse" x="36" y="6" width="4" height="4">
<path d="M37.6021 6.14062C36.7171 6.14062 36 6.85813 36 7.74271C36 8.62771 36.7171 9.34479 37.6021 9.34479C38.4871 9.34479 39.2042 8.62771 39.2042 7.74271C39.2042 6.85813 38.4871 6.14062 37.6021 6.14062Z" fill="white"/>
</mask>
<g mask="url(#mask1_623_32669)">
<path d="M36 6.14062H39.2042V9.34479H36V6.14062Z" fill="white"/>
</g>
</g>
<path d="M58.046 20.574C58.718 20.694 59.288 21.048 59.756 21.636C60.224 22.224 60.458 22.89 60.458 23.634C60.458 24.27 60.29 24.846 59.954 25.362C59.63 25.866 59.156 26.268 58.532 26.568C57.908 26.856 57.182 27 56.354 27H51.35V14.49H56.12C56.972 14.49 57.704 14.634 58.316 14.922C58.928 15.21 59.39 15.6 59.702 16.092C60.014 16.572 60.17 17.112 60.17 17.712C60.17 18.432 59.978 19.032 59.594 19.512C59.21 19.992 58.694 20.346 58.046 20.574ZM53.402 19.746H55.94C56.612 19.746 57.134 19.596 57.506 19.296C57.89 18.984 58.082 18.54 58.082 17.964C58.082 17.4 57.89 16.962 57.506 16.65C57.134 16.326 56.612 16.164 55.94 16.164H53.402V19.746ZM56.174 25.326C56.87 25.326 57.416 25.158 57.812 24.822C58.208 24.486 58.406 24.018 58.406 23.418C58.406 22.806 58.196 22.32 57.776 21.96C57.356 21.6 56.798 21.42 56.102 21.42H53.402V25.326H56.174ZM64.7399 25.344H68.9699V27H62.6879V14.49H64.7399V25.344ZM76.3919 27.126C75.2279 27.126 74.1539 26.856 73.1699 26.316C72.1979 25.764 71.4239 25.002 70.8479 24.03C70.2839 23.046 70.0019 21.942 70.0019 20.718C70.0019 19.494 70.2839 18.396 70.8479 17.424C71.4239 16.452 72.1979 15.696 73.1699 15.156C74.1539 14.604 75.2279 14.328 76.3919 14.328C77.5679 14.328 78.6419 14.604 79.6139 15.156C80.5979 15.696 81.3719 16.452 81.9359 17.424C82.4999 18.396 82.7819 19.494 82.7819 20.718C82.7819 21.942 82.4999 23.046 81.9359 24.03C81.3719 25.002 80.5979 25.764 79.6139 26.316C78.6419 26.856 77.5679 27.126 76.3919 27.126ZM76.3919 25.344C77.2199 25.344 77.9579 25.158 78.6059 24.786C79.2539 24.402 79.7579 23.862 80.1179 23.166C80.4899 22.458 80.6759 21.642 80.6759 20.718C80.6759 19.794 80.4899 18.984 80.1179 18.288C79.7579 17.592 79.2539 17.058 78.6059 16.686C77.9579 16.314 77.2199 16.128 76.3919 16.128C75.5639 16.128 74.8259 16.314 74.1779 16.686C73.5299 17.058 73.0199 17.592 72.6479 18.288C72.2879 18.984 72.1079 19.794 72.1079 20.718C72.1079 21.642 72.2879 22.458 72.6479 23.166C73.0199 23.862 73.5299 24.402 74.1779 24.786C74.8259 25.158 75.5639 25.344 76.3919 25.344ZM88.9232 27.126C88.0832 27.126 87.3272 26.982 86.6552 26.694C85.9832 26.394 85.4552 25.974 85.0712 25.434C84.6872 24.894 84.4952 24.264 84.4952 23.544H86.6912C86.7392 24.084 86.9492 24.528 87.3212 24.876C87.7052 25.224 88.2392 25.398 88.9232 25.398C89.6312 25.398 90.1832 25.23 90.5792 24.894C90.9752 24.546 91.1732 24.102 91.1732 23.562C91.1732 23.142 91.0472 22.8 90.7952 22.536C90.5552 22.272 90.2492 22.068 89.8772 21.924C89.5172 21.78 89.0132 21.624 88.3652 21.456C87.5492 21.24 86.8832 21.024 86.3672 20.808C85.8632 20.58 85.4312 20.232 85.0712 19.764C84.7112 19.296 84.5312 18.672 84.5312 17.892C84.5312 17.172 84.7112 16.542 85.0712 16.002C85.4312 15.462 85.9352 15.048 86.5832 14.76C87.2312 14.472 87.9812 14.328 88.8332 14.328C90.0452 14.328 91.0352 14.634 91.8032 15.246C92.5832 15.846 93.0152 16.674 93.0992 17.73H90.8312C90.7952 17.274 90.5792 16.884 90.1832 16.56C89.7872 16.236 89.2652 16.074 88.6172 16.074C88.0292 16.074 87.5492 16.224 87.1772 16.524C86.8052 16.824 86.6192 17.256 86.6192 17.82C86.6192 18.204 86.7332 18.522 86.9612 18.774C87.2012 19.014 87.5012 19.206 87.8612 19.35C88.2212 19.494 88.7132 19.65 89.3372 19.818C90.1652 20.046 90.8372 20.274 91.3532 20.502C91.8812 20.73 92.3252 21.084 92.6852 21.564C93.0572 22.032 93.2432 22.662 93.2432 23.454C93.2432 24.09 93.0692 24.69 92.7212 25.254C92.3852 25.818 91.8872 26.274 91.2272 26.622C90.5792 26.958 89.8112 27.126 88.9232 27.126ZM99.7865 27.126C98.9465 27.126 98.1905 26.982 97.5185 26.694C96.8465 26.394 96.3185 25.974 95.9345 25.434C95.5505 24.894 95.3585 24.264 95.3585 23.544H97.5545C97.6025 24.084 97.8125 24.528 98.1845 24.876C98.5685 25.224 99.1025 25.398 99.7865 25.398C100.494 25.398 101.046 25.23 101.442 24.894C101.838 24.546 102.036 24.102 102.036 23.562C102.036 23.142 101.91 22.8 101.658 22.536C101.418 22.272 101.112 22.068 100.74 21.924C100.38 21.78 99.8765 21.624 99.2285 21.456C98.4125 21.24 97.7465 21.024 97.2305 20.808C96.7265 20.58 96.2945 20.232 95.9345 19.764C95.5745 19.296 95.3945 18.672 95.3945 17.892C95.3945 17.172 95.5745 16.542 95.9345 16.002C96.2945 15.462 96.7985 15.048 97.4465 14.76C98.0945 14.472 98.8445 14.328 99.6965 14.328C100.908 14.328 101.898 14.634 102.666 15.246C103.446 15.846 103.878 16.674 103.962 17.73H101.694C101.658 17.274 101.442 16.884 101.046 16.56C100.65 16.236 100.128 16.074 99.4805 16.074C98.8925 16.074 98.4125 16.224 98.0405 16.524C97.6685 16.824 97.4825 17.256 97.4825 17.82C97.4825 18.204 97.5965 18.522 97.8245 18.774C98.0645 19.014 98.3645 19.206 98.7245 19.35C99.0845 19.494 99.5765 19.65 100.2 19.818C101.028 20.046 101.7 20.274 102.216 20.502C102.744 20.73 103.188 21.084 103.548 21.564C103.92 22.032 104.106 22.662 104.106 23.454C104.106 24.09 103.932 24.69 103.584 25.254C103.248 25.818 102.75 26.274 102.09 26.622C101.442 26.958 100.674 27.126 99.7865 27.126ZM112.234 27.126C111.07 27.126 109.996 26.856 109.012 26.316C108.04 25.764 107.266 25.002 106.69 24.03C106.126 23.046 105.844 21.942 105.844 20.718C105.844 19.494 106.126 18.396 106.69 17.424C107.266 16.452 108.04 15.696 109.012 15.156C109.996 14.604 111.07 14.328 112.234 14.328C113.41 14.328 114.484 14.604 115.456 15.156C116.44 15.696 117.214 16.452 117.778 17.424C118.342 18.396 118.624 19.494 118.624 20.718C118.624 21.942 118.342 23.046 117.778 24.03C117.214 25.002 116.44 25.764 115.456 26.316C114.484 26.856 113.41 27.126 112.234 27.126ZM112.234 25.344C113.062 25.344 113.8 25.158 114.448 24.786C115.096 24.402 115.6 23.862 115.96 23.166C116.332 22.458 116.518 21.642 116.518 20.718C116.518 19.794 116.332 18.984 115.96 18.288C115.6 17.592 115.096 17.058 114.448 16.686C113.8 16.314 113.062 16.128 112.234 16.128C111.406 16.128 110.668 16.314 110.02 16.686C109.372 17.058 108.862 17.592 108.49 18.288C108.13 18.984 107.95 19.794 107.95 20.718C107.95 21.642 108.13 22.458 108.49 23.166C108.862 23.862 109.372 24.402 110.02 24.786C110.668 25.158 111.406 25.344 112.234 25.344ZM133.819 14.49V27H131.767V18.432L127.951 27H126.529L122.695 18.432V27H120.643V14.49H122.857L127.249 24.3L131.623 14.49H133.819ZM150.246 18.09C149.922 17.466 149.472 16.998 148.896 16.686C148.32 16.362 147.654 16.2 146.898 16.2C146.07 16.2 145.332 16.386 144.684 16.758C144.036 17.13 143.526 17.658 143.154 18.342C142.794 19.026 142.614 19.818 142.614 20.718C142.614 21.618 142.794 22.416 143.154 23.112C143.526 23.796 144.036 24.324 144.684 24.696C145.332 25.068 146.07 25.254 146.898 25.254C148.014 25.254 148.92 24.942 149.616 24.318C150.312 23.694 150.738 22.848 150.894 21.78H146.196V20.142H153.09V21.744C152.958 22.716 152.61 23.61 152.046 24.426C151.494 25.242 150.768 25.896 149.868 26.388C148.98 26.868 147.99 27.108 146.898 27.108C145.722 27.108 144.648 26.838 143.676 26.298C142.704 25.746 141.93 24.984 141.354 24.012C140.79 23.04 140.508 21.942 140.508 20.718C140.508 19.494 140.79 18.396 141.354 17.424C141.93 16.452 142.704 15.696 143.676 15.156C144.66 14.604 145.734 14.328 146.898 14.328C148.23 14.328 149.412 14.658 150.444 15.318C151.488 15.966 152.244 16.89 152.712 18.09H150.246ZM157.166 16.146V19.818H161.486V21.492H157.166V25.326H162.026V27H155.114V14.472H162.026V16.146H157.166ZM174.831 27H172.779L166.605 17.658V27H164.553V14.472H166.605L172.779 23.796V14.472H174.831V27ZM179.578 16.146V19.818H183.898V21.492H179.578V25.326H184.438V27H177.526V14.472H184.438V16.146H179.578ZM193.463 27L190.583 21.996H189.017V27H186.965V14.49H191.285C192.245 14.49 193.055 14.658 193.715 14.994C194.387 15.33 194.885 15.78 195.209 16.344C195.545 16.908 195.713 17.538 195.713 18.234C195.713 19.05 195.473 19.794 194.993 20.466C194.525 21.126 193.799 21.576 192.815 21.816L195.911 27H193.463ZM189.017 20.358H191.285C192.053 20.358 192.629 20.166 193.013 19.782C193.409 19.398 193.607 18.882 193.607 18.234C193.607 17.586 193.415 17.082 193.031 16.722C192.647 16.35 192.065 16.164 191.285 16.164H189.017V20.358ZM205.88 24.444H200.642L199.742 27H197.6L202.082 14.472H204.458L208.94 27H206.78L205.88 24.444ZM205.304 22.77L203.27 16.956L201.218 22.77H205.304ZM218.971 14.49V16.164H215.641V27H213.589V16.164H210.241V14.49H218.971ZM223.101 14.49V27H221.049V14.49H223.101ZM231.501 27.126C230.337 27.126 229.263 26.856 228.279 26.316C227.307 25.764 226.533 25.002 225.957 24.03C225.393 23.046 225.111 21.942 225.111 20.718C225.111 19.494 225.393 18.396 225.957 17.424C226.533 16.452 227.307 15.696 228.279 15.156C229.263 14.604 230.337 14.328 231.501 14.328C232.677 14.328 233.751 14.604 234.723 15.156C235.707 15.696 236.481 16.452 237.045 17.424C237.609 18.396 237.891 19.494 237.891 20.718C237.891 21.942 237.609 23.046 237.045 24.03C236.481 25.002 235.707 25.764 234.723 26.316C233.751 26.856 232.677 27.126 231.501 27.126ZM231.501 25.344C232.329 25.344 233.067 25.158 233.715 24.786C234.363 24.402 234.867 23.862 235.227 23.166C235.599 22.458 235.785 21.642 235.785 20.718C235.785 19.794 235.599 18.984 235.227 18.288C234.867 17.592 234.363 17.058 233.715 16.686C233.067 16.314 232.329 16.128 231.501 16.128C230.673 16.128 229.935 16.314 229.287 16.686C228.639 17.058 228.129 17.592 227.757 18.288C227.397 18.984 227.217 19.794 227.217 20.718C227.217 21.642 227.397 22.458 227.757 23.166C228.129 23.862 228.639 24.402 229.287 24.786C229.935 25.158 230.673 25.344 231.501 25.344ZM250.189 27H248.137L241.963 17.658V27H239.911V14.472H241.963L248.137 23.796V14.472H250.189V27Z" fill="white"/>
</svg>
